persistentvolumeclaim/dbench created
job.batch/dbench created
Job все еще выполняется
Job все еще выполняется
Job все еще выполняется
Job все еще выполняется
Job все еще выполняется
Job все еще выполняется
Job все еще выполняется
Job все еще выполняется
Job все еще выполняется
Job все еще выполняется
Job все еще выполняется
Job все еще выполняется
Job все еще выполняется
Job все еще выполняется
Job все еще выполняется
Job все еще выполняется
Job все еще выполняется
Job все еще выполняется
Job все еще выполняется
Job все еще выполняется
Job все еще выполняется
Job все еще выполняется
Job все еще выполняется
persistentvolumeclaim "dbench" deleted
job.batch "dbench" deleted
Тест под номером 1 завершен, результаты записаны
persistentvolumeclaim/dbench created
job.batch/dbench created
Job все еще выполняется
Job все еще выполняется
Job все еще выполняется
Job все еще выполняется
Job все еще выполняется
Job все еще выполняется
Job все еще выполняется
Job все еще выполняется
Job все еще выполняется
Job все еще выполняется
Job все еще выполняется
Job все еще выполняется
Job все еще выполняется
Job все еще выполняется
Job все еще выполняется
Job все еще выполняется
Job все еще выполняется
Job все еще выполняется
Job все еще выполняется
Job все еще выполняется
Job все еще выполняется
Job все еще выполняется
Job все еще выполняется
persistentvolumeclaim "dbench" deleted
job.batch "dbench" deleted
Тест под номером 2 завершен, результаты записаны
persistentvolumeclaim/dbench created
job.batch/dbench created
Job все еще выполняется
Job все еще выполняется
Job все еще выполняется
Job все еще выполняется
Job все еще выполняется
Job все еще выполняется
Job все еще выполняется
Job все еще выполняется
Job все еще выполняется
Job все еще выполняется
Job все еще выполняется
Job все еще выполняется
Job все еще выполняется
Job все еще выполняется
Job все еще выполняется
Job все еще выполняется
Job все еще выполняется
Job все еще выполняется
Job все еще выполняется
Job все еще выполняется
Job все еще выполняется
Job все еще выполняется
Job все еще выполняется
persistentvolumeclaim "dbench" deleted
job.batch "dbench" deleted
Тест под номером 3 завершен, результаты записаны
persistentvolumeclaim/dbench created
job.batch/dbench created
Job все еще выполняется
Job все еще выполняется
Job все еще выполняется
Job все еще выполняется
Job все еще выполняется
Job все еще выполняется
Job все еще выполняется
Job все еще выполняется
Job все еще выполняется
Job все еще выполняется
Job все еще выполняется
Job все еще выполняется
Job все еще выполняется
Job все еще выполняется
Job все еще выполняется
Job все еще выполняется
Job все еще выполняется
Job все еще выполняется
Job все еще выполняется
Job все еще выполняется
Job все еще выполняется
Job все еще выполняется
persistentvolumeclaim "dbench" deleted
job.batch "dbench" deleted
Тест под номером 4 завершен, результаты записаны
persistentvolumeclaim/dbench created
job.batch/dbench created
Job все еще выполняется
Job все еще выполняется
Job все еще выполняется
Job все еще выполняется
Job все еще выполняется
Job все еще выполняется
Job все еще выполняется
Job все еще выполняется
Job все еще выполняется
Job все еще выполняется
Job все еще выполняется
Job все еще выполняется
Job все еще выполняется
Job все еще выполняется
Job все еще выполняется
Job все еще выполняется
Job все еще выполняется
Job все еще выполняется
Job все еще выполняется
Job все еще выполняется
Job все еще выполняется
Job все еще выполняется
persistentvolumeclaim "dbench" deleted
job.batch "dbench" deleted
Тест под номером 5 завершен, результаты записаны
persistentvolumeclaim/dbench created
job.batch/dbench created
Job все еще выполняется
Job все еще выполняется
Job все еще выполняется
Job все еще выполняется
Job все еще выполняется
Job все еще выполняется
Job все еще выполняется
Job все еще выполняется
Job все еще выполняется
Job все еще выполняется
Job все еще выполняется
Job все еще выполняется
Job все еще выполняется
Job все еще выполняется
Job все еще выполняется
Job все еще выполняется
Job все еще выполняется
Job все еще выполняется
Job все еще выполняется
Job все еще выполняется
Job все еще выполняется
Job все еще выполняется
Job все еще выполняется
persistentvolumeclaim "dbench" deleted
job.batch "dbench" deleted
Тест под номером 6 завершен, результаты записаны
persistentvolumeclaim/dbench created
job.batch/dbench created
Job все еще выполняется
Job все еще выполняется
Job все еще выполняется
Job все еще выполняется
Job все еще выполняется
Job все еще выполняется
Job все еще выполняется
Job все еще выполняется
Job все еще выполняется
Job все еще выполняется
Job все еще выполняется
Job все еще выполняется
Job все еще выполняется
Job все еще выполняется
Job все еще выполняется
Job все еще выполняется
Job все еще выполняется
Job все еще выполняется
Job все еще выполняется
Job все еще выполняется
Job все еще выполняется
Job все еще выполняется
Job все еще выполняется
persistentvolumeclaim "dbench" deleted
job.batch "dbench" deleted
Тест под номером 7 завершен, результаты записаны
persistentvolumeclaim/dbench created
job.batch/dbench created
Job все еще выполняется
Job все еще выполняется
Job все еще выполняется
Job все еще выполняется
Job все еще выполняется
Job все еще выполняется
Job все еще выполняется
Job все еще выполняется
Job все еще выполняется
Job все еще выполняется
Job все еще выполняется
Job все еще выполняется
Job все еще выполняется
Job все еще выполняется
Job все еще выполняется
Job все еще выполняется
Job все еще выполняется
Job все еще выполняется
Job все еще выполняется
Job все еще выполняется
Job все еще выполняется
Job все еще выполняется
persistentvolumeclaim "dbench" deleted
job.batch "dbench" deleted
Тест под номером 8 завершен, результаты записаны
persistentvolumeclaim/dbench created
job.batch/dbench created
Job все еще выполняется
Job все еще выполняется
Job все еще выполняется
Job все еще выполняется
Job все еще выполняется
Job все еще выполняется
Job все еще выполняется
Job все еще выполняется
Job все еще выполняется
Job все еще выполняется
Job все еще выполняется
Job все еще выполняется
Job все еще выполняется
Job все еще выполняется
Job все еще выполняется
Job все еще выполняется
Job все еще выполняется
Job все еще выполняется
Job все еще выполняется
Job все еще выполняется
Job все еще выполняется
persistentvolumeclaim "dbench" deleted
job.batch "dbench" deleted
Тест под номером 9 завершен, результаты записаны
persistentvolumeclaim/dbench created
job.batch/dbench created
Job все еще выполняется
Job все еще выполняется
Job все еще выполняется
Job все еще выполняется
Job все еще выполняется
Job все еще выполняется
Job все еще выполняется
Job все еще выполняется
Job все еще выполняется
Job все еще выполняется
Job все еще выполняется
Job все еще выполняется
Job все еще выполняется
Job все еще выполняется
Job все еще выполняется
Job все еще выполняется
Job все еще выполняется
Job все еще выполняется
Job все еще выполняется
Job все еще выполняется
Job все еще выполняется
persistentvolumeclaim "dbench" deleted
job.batch "dbench" deleted
Тест под номером 10 завершен, результаты записаны
persistentvolumeclaim/dbench created
job.batch/dbench created
Job все еще выполняется
Job все еще выполняется
Job все еще выполняется
Job все еще выполняется
Job все еще выполняется
Job все еще выполняется
Job все еще выполняется
Job все еще выполняется
Job все еще выполняется
Job все еще выполняется
Job все еще выполняется
Job все еще выполняется
Job все еще выполняется
Job все еще выполняется
Job все еще выполняется
Job все еще выполняется
Job все еще выполняется
Job все еще выполняется
Job все еще выполняется
Job все еще выполняется
persistentvolumeclaim "dbench" deleted
job.batch "dbench" deleted
Тест под номером 11 завершен, результаты записаны
persistentvolumeclaim/dbench created
job.batch/dbench created
Job все еще выполняется
Job все еще выполняется
Job все еще выполняется
Job все еще выполняется
Job все еще выполняется
Job все еще выполняется
Job все еще выполняется
Job все еще выполняется
Job все еще выполняется
Job все еще выполняется
Job все еще выполняется
Job все еще выполняется
Job все еще выполняется
Job все еще выполняется
Job все еще выполняется
Job все еще выполняется
Job все еще выполняется
Job все еще выполняется
Job все еще выполняется
Job все еще выполняется
persistentvolumeclaim "dbench" deleted
job.batch "dbench" deleted
Тест под номером 12 завершен, результаты записаны
persistentvolumeclaim/dbench created
job.batch/dbench created
Job все еще выполняется
Job все еще выполняется
Job все еще выполняется
Job все еще выполняется
Job все еще выполняется
Job все еще выполняется
Job все еще выполняется
Job все еще выполняется
Job все еще выполняется
Job все еще выполняется
Job все еще выполняется
Job все еще выполняется
Job все еще выполняется
Job все еще выполняется
Job все еще выполняется
Job все еще выполняется
Job все еще выполняется
Job все еще выполняется
Job все еще выполняется
Job все еще выполняется
Job все еще выполняется
Job все еще выполняется
Job все еще выполняется
persistentvolumeclaim "dbench" deleted
job.batch "dbench" deleted
Тест под номером 13 завершен, результаты записаны
persistentvolumeclaim/dbench created
job.batch/dbench created
Job все еще выполняется
Job все еще выполняется
Job все еще выполняется
Job все еще выполняется
Job все еще выполняется
Job все еще выполняется
Job все еще выполняется
Job все еще выполняется
Job все еще выполняется
Job все еще выполняется
Job все еще выполняется
Job все еще выполняется
Job все еще выполняется
Job все еще выполняется
Job все еще выполняется
Job все еще выполняется
Job все еще выполняется
Job все еще выполняется
Job все еще выполняется
Job все еще выполняется
Job все еще выполняется
Job все еще выполняется
Job все еще выполняется
Job все еще выполняется
Job все еще выполняется
Job все еще выполняется
persistentvolumeclaim "dbench" deleted
job.batch "dbench" deleted
Тест под номером 14 завершен, результаты записаны
persistentvolumeclaim/dbench created
job.batch/dbench created
Job все еще выполняется
Job все еще выполняется
Job все еще выполняется
Job все еще выполняется
Job все еще выполняется
Job все еще выполняется
Job все еще выполняется
Job все еще выполняется
Job все еще выполняется
Job все еще выполняется
Job все еще выполняется
Job все еще выполняется
Job все еще выполняется
Job все еще выполняется
Job все еще выполняется
Job все еще выполняется
Job все еще выполняется
Job все еще выполняется
Job все еще выполняется
Job все еще выполняется
Job все еще выполняется
Job все еще выполняется
Job все еще выполняется
Job все еще выполняется
Job все еще выполняется
persistentvolumeclaim "dbench" deleted
job.batch "dbench" deleted
Тест под номером 15 завершен, результаты записаны
persistentvolumeclaim/dbench created
job.batch/dbench created
Job все еще выполняется
Job все еще выполняется
Job все еще выполняется
Job все еще выполняется
Job все еще выполняется
Job все еще выполняется
Job все еще выполняется
Job все еще выполняется
Job все еще выполняется
Job все еще выполняется
Job все еще выполняется
Job все еще выполняется
Job все еще выполняется
Job все еще выполняется
Job все еще выполняется
Job все еще выполняется
Job все еще выполняется
Job все еще выполняется
Job все еще выполняется
Job все еще выполняется
Job все еще выполняется
Job все еще выполняется
Job все еще выполняется
Job все еще выполняется
Job все еще выполняется
Job все еще выполняется
persistentvolumeclaim "dbench" deleted
job.batch "dbench" deleted
Тест под номером 16 завершен, результаты записаны
persistentvolumeclaim/dbench created
job.batch/dbench created
Job все еще выполняется
Job все еще выполняется
Job все еще выполняется
Job все еще выполняется
Job все еще выполняется
Job все еще выполняется
Job все еще выполняется
Job все еще выполняется
Job все еще выполняется
Job все еще выполняется
Job все еще выполняется
Job все еще выполняется
Job все еще выполняется
Job все еще выполняется
Job все еще выполняется
Job все еще выполняется
Job все еще выполняется
Job все еще выполняется
Job все еще выполняется
Job все еще выполняется
Job все еще выполняется
Job все еще выполняется
Job все еще выполняется
Job все еще выполняется
persistentvolumeclaim "dbench" deleted
job.batch "dbench" deleted
Тест под номером 17 завершен, результаты записаны
persistentvolumeclaim/dbench created
job.batch/dbench created
Job все еще выполняется
Job все еще выполняется
Job все еще выполняется
Job все еще выполняется
Job все еще выполняется
Job все еще выполняется
Job все еще выполняется
Job все еще выполняется
Job все еще выполняется
Job все еще выполняется
Job все еще выполняется
Job все еще выполняется
Job все еще выполняется
Job все еще выполняется
Job все еще выполняется
Job все еще выполняется
Job все еще выполняется
Job все еще выполняется
Job все еще выполняется
Job все еще выполняется
Job все еще выполняется
Job все еще выполняется
Job все еще выполняется
persistentvolumeclaim "dbench" deleted
job.batch "dbench" deleted
Тест под номером 18 завершен, результаты записаны
persistentvolumeclaim/dbench created
job.batch/dbench created
Job все еще выполняется
Job все еще выполняется
Job все еще выполняется
Job все еще выполняется
Job все еще выполняется
Job все еще выполняется
Job все еще выполняется
Job все еще выполняется
Job все еще выполняется
Job все еще выполняется
Job все еще выполняется
Job все еще выполняется
Job все еще выполняется
Job все еще выполняется
Job все еще выполняется
Job все еще выполняется
Job все еще выполняется
Job все еще выполняется
Job все еще выполняется
Job все еще выполняется
Job все еще выполняется
Job все еще выполняется
Job все еще выполняется
Job все еще выполняется
Job все еще выполняется
persistentvolumeclaim "dbench" deleted
job.batch "dbench" deleted
Тест под номером 19 завершен, результаты записаны
persistentvolumeclaim/dbench created
job.batch/dbench created
Job все еще выполняется
Job все еще выполняется
Job все еще выполняется
Job все еще выполняется
Job все еще выполняется
Job все еще выполняется
Job все еще выполняется
Job все еще выполняется
Job все еще выполняется
Job все еще выполняется
Job все еще выполняется
Job все еще выполняется
Job все еще выполняется
Job все еще выполняется
Job все еще выполняется
Job все еще выполняется
Job все еще выполняется
Job все еще выполняется
Job все еще выполняется
Job все еще выполняется
Job все еще выполняется
Job все еще выполняется
Job все еще выполняется
Job все еще выполняется
Job все еще выполняется
Job все еще выполняется
Job все еще выполняется
Job все еще выполняется
persistentvolumeclaim "dbench" deleted
job.batch "dbench" deleted
Тест под номером 20 завершен, результаты записаны
persistentvolumeclaim/dbench created
job.batch/dbench created
Job все еще выполняется
Job все еще выполняется
Job все еще выполняется
Job все еще выполняется
Job все еще выполняется
Job все еще выполняется
Job все еще выполняется
Job все еще выполняется
Job все еще выполняется
Job все еще выполняется
Job все еще выполняется
Job все еще выполняется
Job все еще выполняется
Job все еще выполняется
Job все еще выполняется
Job все еще выполняется
Job все еще выполняется
Job все еще выполняется
Job все еще выполняется
Job все еще выполняется
Job все еще выполняется
Job все еще выполняется
Job все еще выполняется
Job все еще выполняется
Job все еще выполняется
Job все еще выполняется
Job все еще выполняется
persistentvolumeclaim "dbench" deleted
job.batch "dbench" deleted
Тест под номером 21 завершен, результаты записаны
persistentvolumeclaim/dbench created
job.batch/dbench created
Job все еще выполняется
Job все еще выполняется
Job все еще выполняется
Job все еще выполняется
Job все еще выполняется
Job все еще выполняется
Job все еще выполняется
Job все еще выполняется
Job все еще выполняется
Job все еще выполняется
Job все еще выполняется
Job все еще выполняется
Job все еще выполняется
Job все еще выполняется
Job все еще выполняется
Job все еще выполняется
Job все еще выполняется
Job все еще выполняется
Job все еще выполняется
Job все еще выполняется
Job все еще выполняется
Job все еще выполняется
Job все еще выполняется
Job все еще выполняется
Job все еще выполняется
Job все еще выполняется
persistentvolumeclaim "dbench" deleted
job.batch "dbench" deleted
Тест под номером 22 завершен, результаты записаны
persistentvolumeclaim/dbench created
job.batch/dbench created
Job все еще выполняется
Job все еще выполняется
Job все еще выполняется
Job все еще выполняется
Job все еще выполняется
Job все еще выполняется
Job все еще выполняется
Job все еще выполняется
Job все еще выполняется
Job все еще выполняется
Job все еще выполняется
Job все еще выполняется
Job все еще выполняется
Job все еще выполняется
Job все еще выполняется
Job все еще выполняется
Job все еще выполняется
Job все еще выполняется
Job все еще выполняется
Job все еще выполняется
Job все еще выполняется
Job все еще выполняется
persistentvolumeclaim "dbench" deleted
job.batch "dbench" deleted
Тест под номером 23 завершен, результаты записаны
persistentvolumeclaim/dbench created
job.batch/dbench created
Job все еще выполняется
Job все еще выполняется
Job все еще выполняется
Job все еще выполняется
Job все еще выполняется
Job все еще выполняется
Job все еще выполняется
Job все еще выполняется
Job все еще выполняется
Job все еще выполняется
Job все еще выполняется
Job все еще выполняется
Job все еще выполняется
Job все еще выполняется
Job все еще выполняется
Job все еще выполняется
Job все еще выполняется
Job все еще выполняется
Job все еще выполняется
Job все еще выполняется
Job все еще выполняется
Job все еще выполняется
Job все еще выполняется
Job все еще выполняется
Job все еще выполняется
Job все еще выполняется
persistentvolumeclaim "dbench" deleted
job.batch "dbench" deleted
Тест под номером 24 завершен, результаты записаны
persistentvolumeclaim/dbench created
job.batch/dbench created
Job все еще выполняется
Job все еще выполняется
Job все еще выполняется
Job все еще выполняется
Job все еще выполняется
Job все еще выполняется
Job все еще выполняется
Job все еще выполняется
Job все еще выполняется
Job все еще выполняется
Job все еще выполняется
Job все еще выполняется
Job все еще выполняется
Job все еще выполняется
Job все еще выполняется
Job все еще выполняется
Job все еще выполняется
Job все еще выполняется
Job все еще выполняется
Job все еще выполняется
Job все еще выполняется
Job все еще выполняется
Job все еще выполняется
Job все еще выполняется
Job все еще выполняется
Job все еще выполняется
Job все еще выполняется
Job все еще выполняется
Job все еще выполняется
Job все еще выполняется
Job все еще выполняется
Job все еще выполняется
Job все еще выполняется
Job все еще выполняется
Job все еще выполняется
Job все еще выполняется
Job все еще выполняется
persistentvolumeclaim "dbench" deleted
job.batch "dbench" deleted
Тест под номером 25 завершен, результаты записаны
persistentvolumeclaim/dbench created
job.batch/dbench created
Job все еще выполняется
Job все еще выполняется
Job все еще выполняется
Job все еще выполняется
Job все еще выполняется
Job все еще выполняется
Job все еще выполняется
Job все еще выполняется
Job все еще выполняется
Job все еще выполняется
Job все еще выполняется
Job все еще выполняется
Job все еще выполняется
Job все еще выполняется
Job все еще выполняется
Job все еще выполняется
Job все еще выполняется
Job все еще выполняется
Job все еще выполняется
Job все еще выполняется
Job все еще выполняется
Job все еще выполняется
Job все еще выполняется
persistentvolumeclaim "dbench" deleted
job.batch "dbench" deleted
Тест под номером 26 завершен, результаты записаны
persistentvolumeclaim/dbench created
job.batch/dbench created
Job все еще выполняется
Job все еще выполняется
Job все еще выполняется
Job все еще выполняется
Job все еще выполняется
Job все еще выполняется
Job все еще выполняется
Job все еще выполняется
Job все еще выполняется
Job все еще выполняется
Job все еще выполняется
Job все еще выполняется
Job все еще выполняется
Job все еще выполняется
Job все еще выполняется
Job все еще выполняется
Job все еще выполняется
Job все еще выполняется
Job все еще выполняется
Job все еще выполняется
Job все еще выполняется
Job все еще выполняется
persistentvolumeclaim "dbench" deleted
job.batch "dbench" deleted
Тест под номером 27 завершен, результаты записаны
persistentvolumeclaim/dbench created
job.batch/dbench created
Job все еще выполняется
Job все еще выполняется
Job все еще выполняется
Job все еще выполняется
Job все еще выполняется
Job все еще выполняется
Job все еще выполняется
Job все еще выполняется
Job все еще выполняется
Job все еще выполняется
Job все еще выполняется
Job все еще выполняется
Job все еще выполняется
Job все еще выполняется
Job все еще выполняется
Job все еще выполняется
Job все еще выполняется
Job все еще выполняется
Job все еще выполняется
Job все еще выполняется
Job все еще выполняется
persistentvolumeclaim "dbench" deleted
job.batch "dbench" deleted
Тест под номером 28 завершен, результаты записаны
persistentvolumeclaim/dbench created
job.batch/dbench created
Job все еще выполняется
Job все еще выполняется
Job все еще выполняется
Job все еще выполняется
Job все еще выполняется
Job все еще выполняется
Job все еще выполняется
Job все еще выполняется
Job все еще выполняется
Job все еще выполняется
Job все еще выполняется
Job все еще выполняется
Job все еще выполняется
Job все еще выполняется
Job все еще выполняется
Job все еще выполняется
Job все еще выполняется
Job все еще выполняется
Job все еще выполняется
Job все еще выполняется
Job все еще выполняется
persistentvolumeclaim "dbench" deleted
job.batch "dbench" deleted
Тест под номером 29 завершен, результаты записаны
persistentvolumeclaim/dbench created
job.batch/dbench created
Job все еще выполняется
Job все еще выполняется
Job все еще выполняется
Job все еще выполняется
Job все еще выполняется
Job все еще выполняется
Job все еще выполняется
Job все еще выполняется
Job все еще выполняется
Job все еще выполняется
Job все еще выполняется
Job все еще выполняется
Job все еще выполняется
Job все еще выполняется
Job все еще выполняется
Job все еще выполняется
Job все еще выполняется
Job все еще выполняется
Job все еще выполняется
Job все еще выполняется
Job все еще выполняется
Job все еще выполняется
persistentvolumeclaim "dbench" deleted
job.batch "dbench" deleted
Тест под номером 30 завершен, результаты записаны
persistentvolumeclaim/dbench created
job.batch/dbench created
Job все еще выполняется
Job все еще выполняется
Job все еще выполняется
Job все еще выполняется
Job все еще выполняется
Job все еще выполняется
Job все еще выполняется
Job все еще выполняется
Job все еще выполняется
Job все еще выполняется
Job все еще выполняется
Job все еще выполняется
Job все еще выполняется
Job все еще выполняется
Job все еще выполняется
Job все еще выполняется
Job все еще выполняется
Job все еще выполняется
Job все еще выполняется
Job все еще выполняется
Job все еще выполняется
Job все еще выполняется
persistentvolumeclaim "dbench" deleted
job.batch "dbench" deleted
Тест под номером 31 завершен, результаты записаны
persistentvolumeclaim/dbench created
job.batch/dbench created
Job все еще выполняется
Job все еще выполняется
Job все еще выполняется
Job все еще выполняется
Job все еще выполняется
Job все еще выполняется
Job все еще выполняется
Job все еще выполняется
Job все еще выполняется
Job все еще выполняется
Job все еще выполняется
Job все еще выполняется
Job все еще выполняется
Job все еще выполняется
Job все еще выполняется
Job все еще выполняется
Job все еще выполняется
Job все еще выполняется
Job все еще выполняется
Job все еще выполняется
Job все еще выполняется
Job все еще выполняется
persistentvolumeclaim "dbench" deleted
job.batch "dbench" deleted
Тест под номером 32 завершен, результаты записаны
persistentvolumeclaim/dbench created
job.batch/dbench created
Job все еще выполняется
Job все еще выполняется
Job все еще выполняется
Job все еще выполняется
Job все еще выполняется
Job все еще выполняется
Job все еще выполняется
Job все еще выполняется
Job все еще выполняется
Job все еще выполняется
Job все еще выполняется
Job все еще выполняется
Job все еще выполняется
Job все еще выполняется
Job все еще выполняется
Job все еще выполняется
Job все еще выполняется
Job все еще выполняется
Job все еще выполняется
Job все еще выполняется
Job все еще выполняется
Job все еще выполняется
Job все еще выполняется
persistentvolumeclaim "dbench" deleted
job.batch "dbench" deleted
Тест под номером 33 завершен, результаты записаны
persistentvolumeclaim/dbench created
job.batch/dbench created
Job все еще выполняется
Job все еще выполняется
Job все еще выполняется
Job все еще выполняется
Job все еще выполняется
Job все еще выполняется
Job все еще выполняется
Job все еще выполняется
Job все еще выполняется
Job все еще выполняется
Job все еще выполняется
Job все еще выполняется
Job все еще выполняется
Job все еще выполняется
Job все еще выполняется
Job все еще выполняется
Job все еще выполняется
Job все еще выполняется
Job все еще выполняется
Job все еще выполняется
Job все еще выполняется
Job все еще выполняется
persistentvolumeclaim "dbench" deleted
job.batch "dbench" deleted
Тест под номером 34 завершен, результаты записаны
persistentvolumeclaim/dbench created
job.batch/dbench created
Job все еще выполняется
Job все еще выполняется
Job все еще выполняется
Job все еще выполняется
Job все еще выполняется
Job все еще выполняется
Job все еще выполняется
Job все еще выполняется
Job все еще выполняется
Job все еще выполняется
Job все еще выполняется
Job все еще выполняется
Job все еще выполняется
Job все еще выполняется
Job все еще выполняется
Job все еще выполняется
Job все еще выполняется
Job все еще выполняется
Job все еще выполняется
Job все еще выполняется
Job все еще выполняется
Job все еще выполняется
Job все еще выполняется
persistentvolumeclaim "dbench" deleted
job.batch "dbench" deleted
Тест под номером 35 завершен, результаты записаны
persistentvolumeclaim/dbench created
job.batch/dbench created
Job все еще выполняется
Job все еще выполняется
Job все еще выполняется
Job все еще выполняется
Job все еще выполняется
Job все еще выполняется
Job все еще выполняется
Job все еще выполняется
Job все еще выполняется
Job все еще выполняется
Job все еще выполняется
Job все еще выполняется
Job все еще выполняется
Job все еще выполняется
Job все еще выполняется
Job все еще выполняется
Job все еще выполняется
Job все еще выполняется
Job все еще выполняется
Job все еще выполняется
Job все еще выполняется
Job все еще выполняется
Job все еще выполняется
Job все еще выполняется
Job все еще выполняется
Job все еще выполняется
Job все еще выполняется
persistentvolumeclaim "dbench" deleted
job.batch "dbench" deleted
Тест под номером 36 завершен, результаты записаны
persistentvolumeclaim/dbench created
job.batch/dbench created
Job все еще выполняется
Job все еще выполняется
Job все еще выполняется
Job все еще выполняется
Job все еще выполняется
Job все еще выполняется
Job все еще выполняется
Job все еще выполняется
Job все еще выполняется
Job все еще выполняется
Job все еще выполняется
Job все еще выполняется
Job все еще выполняется
Job все еще выполняется
Job все еще выполняется
Job все еще выполняется
Job все еще выполняется
Job все еще выполняется
Job все еще выполняется
Job все еще выполняется
Job все еще выполняется
Job все еще выполняется
persistentvolumeclaim "dbench" deleted
job.batch "dbench" deleted
Тест под номером 37 завершен, результаты записаны
persistentvolumeclaim/dbench created
job.batch/dbench created
Job все еще выполняется
Job все еще выполняется
Job все еще выполняется
Job все еще выполняется
Job все еще выполняется
Job все еще выполняется
Job все еще выполняется
Job все еще выполняется
Job все еще выполняется
Job все еще выполняется
Job все еще выполняется
Job все еще выполняется
Job все еще выполняется
Job все еще выполняется
Job все еще выполняется
Job все еще выполняется
Job все еще выполняется
Job все еще выполняется
Job все еще выполняется
Job все еще выполняется
Job все еще выполняется
Job все еще выполняется
persistentvolumeclaim "dbench" deleted
job.batch "dbench" deleted
Тест под номером 38 завершен, результаты записаны
persistentvolumeclaim/dbench created
job.batch/dbench created
Job все еще выполняется
Job все еще выполняется
Job все еще выполняется
Job все еще выполняется
Job все еще выполняется
Job все еще выполняется
Job все еще выполняется
Job все еще выполняется
Job все еще выполняется
Job все еще выполняется
Job все еще выполняется
Job все еще выполняется
Job все еще выполняется
Job все еще выполняется
Job все еще выполняется
Job все еще выполняется
Job все еще выполняется
Job все еще выполняется
Job все еще выполняется
Job все еще выполняется
Job все еще выполняется
persistentvolumeclaim "dbench" deleted
job.batch "dbench" deleted
Тест под номером 39 завершен, результаты записаны
persistentvolumeclaim/dbench created
job.batch/dbench created
Job все еще выполняется
Job все еще выполняется
Job все еще выполняется
Job все еще выполняется
Job все еще выполняется
Job все еще выполняется
Job все еще выполняется
Job все еще выполняется
Job все еще выполняется
Job все еще выполняется
Job все еще выполняется
Job все еще выполняется
Job все еще выполняется
Job все еще выполняется
Job все еще выполняется
Job все еще выполняется
Job все еще выполняется
Job все еще выполняется
Job все еще выполняется
Job все еще выполняется
Job все еще выполняется
Job все еще выполняется
persistentvolumeclaim "dbench" deleted
job.batch "dbench" deleted
Тест под номером 40 завершен, результаты записаны
persistentvolumeclaim/dbench created
job.batch/dbench created
Job все еще выполняется
Job все еще выполняется
Job все еще выполняется
Job все еще выполняется
Job все еще выполняется
Job все еще выполняется
Job все еще выполняется
Job все еще выполняется
Job все еще выполняется
Job все еще выполняется
Job все еще выполняется
Job все еще выполняется
Job все еще выполняется
Job все еще выполняется
Job все еще выполняется
Job все еще выполняется
Job все еще выполняется
Job все еще выполняется
Job все еще выполняется
Job все еще выполняется
Job все еще выполняется
Job все еще выполняется
Job все еще выполняется
Job все еще выполняется
Job все еще выполняется
persistentvolumeclaim "dbench" deleted
job.batch "dbench" deleted
Тест под номером 41 завершен, результаты записаны
persistentvolumeclaim/dbench created
job.batch/dbench created
Job все еще выполняется
Job все еще выполняется
Job все еще выполняется
Job все еще выполняется
Job все еще выполняется
Job все еще выполняется
Job все еще выполняется
Job все еще выполняется
Job все еще выполняется
Job все еще выполняется
Job все еще выполняется
Job все еще выполняется
Job все еще выполняется
Job все еще выполняется
Job все еще выполняется
Job все еще выполняется
Job все еще выполняется
Job все еще выполняется
Job все еще выполняется
Job все еще выполняется
Job все еще выполняется
Job все еще выполняется
Job все еще выполняется
persistentvolumeclaim "dbench" deleted
job.batch "dbench" deleted
Тест под номером 42 завершен, результаты записаны
persistentvolumeclaim/dbench created
job.batch/dbench created
Job все еще выполняется
Job все еще выполняется
Job все еще выполняется
Job все еще выполняется
Job все еще выполняется
Job все еще выполняется
Job все еще выполняется
Job все еще выполняется
Job все еще выполняется
Job все еще выполняется
Job все еще выполняется
Job все еще выполняется
Job все еще выполняется
Job все еще выполняется
Job все еще выполняется
Job все еще выполняется
Job все еще выполняется
Job все еще выполняется
Job все еще выполняется
Job все еще выполняется
Job все еще выполняется
Job все еще выполняется
Job все еще выполняется
Job все еще выполняется
persistentvolumeclaim "dbench" deleted
job.batch "dbench" deleted
Тест под номером 43 завершен, результаты записаны
persistentvolumeclaim/dbench created
job.batch/dbench created
Job все еще выполняется
Job все еще выполняется
Job все еще выполняется
Job все еще выполняется
Job все еще выполняется
Job все еще выполняется
Job все еще выполняется
Job все еще выполняется
Job все еще выполняется
Job все еще выполняется
Job все еще выполняется
Job все еще выполняется
Job все еще выполняется
Job все еще выполняется
Job все еще выполняется
Job все еще выполняется
Job все еще выполняется
Job все еще выполняется
Job все еще выполняется
Job все еще выполняется
Job все еще выполняется
Job все еще выполняется
Job все еще выполняется
persistentvolumeclaim "dbench" deleted
job.batch "dbench" deleted
Тест под номером 44 завершен, результаты записаны
persistentvolumeclaim/dbench created
job.batch/dbench created
Job все еще выполняется
Job все еще выполняется
Job все еще выполняется
Job все еще выполняется
Job все еще выполняется
Job все еще выполняется
Job все еще выполняется
Job все еще выполняется
Job все еще выполняется
Job все еще выполняется
Job все еще выполняется
Job все еще выполняется
Job все еще выполняется
Job все еще выполняется
Job все еще выполняется
Job все еще выполняется
Job все еще выполняется
Job все еще выполняется
Job все еще выполняется
Job все еще выполняется
Job все еще выполняется
Job все еще выполняется
Job все еще выполняется
Job все еще выполняется
persistentvolumeclaim "dbench" deleted
job.batch "dbench" deleted
Тест под номером 45 завершен, результаты записаны
persistentvolumeclaim/dbench created
job.batch/dbench created
Job все еще выполняется
Job все еще выполняется
Job все еще выполняется
Job все еще выполняется
Job все еще выполняется
Job все еще выполняется
Job все еще выполняется
Job все еще выполняется
Job все еще выполняется
Job все еще выполняется
Job все еще выполняется
Job все еще выполняется
Job все еще выполняется
Job все еще выполняется
Job все еще выполняется
Job все еще выполняется
Job все еще выполняется
Job все еще выполняется
Job все еще выполняется
Job все еще выполняется
Job все еще выполняется
Job все еще выполняется
persistentvolumeclaim "dbench" deleted
job.batch "dbench" deleted
Тест под номером 46 завершен, результаты записаны
persistentvolumeclaim/dbench created
job.batch/dbench created
Job все еще выполняется
Job все еще выполняется
Job все еще выполняется
Job все еще выполняется
Job все еще выполняется
Job все еще выполняется
Job все еще выполняется
Job все еще выполняется
Job все еще выполняется
Job все еще выполняется
Job все еще выполняется
Job все еще выполняется
Job все еще выполняется
Job все еще выполняется
Job все еще выполняется
Job все еще выполняется
Job все еще выполняется
Job все еще выполняется
Job все еще выполняется
Job все еще выполняется
Job все еще выполняется
Job все еще выполняется
Job все еще выполняется
persistentvolumeclaim "dbench" deleted
job.batch "dbench" deleted
Тест под номером 47 завершен, результаты записаны
persistentvolumeclaim/dbench created
job.batch/dbench created
Job все еще выполняется
Job все еще выполняется
Job все еще выполняется
Job все еще выполняется
Job все еще выполняется
Job все еще выполняется
Job все еще выполняется
Job все еще выполняется
Job все еще выполняется
Job все еще выполняется
Job все еще выполняется
Job все еще выполняется
Job все еще выполняется
Job все еще выполняется
Job все еще выполняется
Job все еще выполняется
Job все еще выполняется
Job все еще выполняется
Job все еще выполняется
Job все еще выполняется
Job все еще выполняется
persistentvolumeclaim "dbench" deleted
job.batch "dbench" deleted
Тест под номером 48 завершен, результаты записаны
persistentvolumeclaim/dbench created
job.batch/dbench created
Job все еще выполняется
Job все еще выполняется
Job все еще выполняется
Job все еще выполняется
Job все еще выполняется
Job все еще выполняется
Job все еще выполняется
Job все еще выполняется
Job все еще выполняется
Job все еще выполняется
Job все еще выполняется
Job все еще выполняется
Job все еще выполняется
Job все еще выполняется
Job все еще выполняется
Job все еще выполняется
Job все еще выполняется
Job все еще выполняется
Job все еще выполняется
Job все еще выполняется
Job все еще выполняется
Job все еще выполняется
persistentvolumeclaim "dbench" deleted
job.batch "dbench" deleted
Тест под номером 49 завершен, результаты записаны
persistentvolumeclaim/dbench created
job.batch/dbench created
Job все еще выполняется
Job все еще выполняется
Job все еще выполняется
Job все еще выполняется
Job все еще выполняется
Job все еще выполняется
Job все еще выполняется
Job все еще выполняется
Job все еще выполняется
Job все еще выполняется
Job все еще выполняется
Job все еще выполняется
Job все еще выполняется
Job все еще выполняется
Job все еще выполняется
Job все еще выполняется
Job все еще выполняется
Job все еще выполняется
Job все еще выполняется
Job все еще выполняется
Job все еще выполняется
Job все еще выполняется
persistentvolumeclaim "dbench" deleted
job.batch "dbench" deleted
Тест под номером 50 завершен, результаты записаны
persistentvolumeclaim/dbench created
job.batch/dbench created
Job все еще выполняется
Job все еще выполняется
Job все еще выполняется
Job все еще выполняется
Job все еще выполняется
Job все еще выполняется
Job все еще выполняется
Job все еще выполняется
Job все еще выполняется
Job все еще выполняется
Job все еще выполняется
Job все еще выполняется
Job все еще выполняется
Job все еще выполняется
Job все еще выполняется
Job все еще выполняется
Job все еще выполняется
Job все еще выполняется
persistentvolumeclaim "dbench" deleted
job.batch "dbench" deleted
Тест под номером 51 завершен, результаты записаны
persistentvolumeclaim/dbench created
job.batch/dbench created
Job все еще выполняется
Job все еще выполняется
Job все еще выполняется
Job все еще выполняется
Job все еще выполняется
Job все еще выполняется
Job все еще выполняется
Job все еще выполняется
Job все еще выполняется
Job все еще выполняется
Job все еще выполняется
Job все еще выполняется
Job все еще выполняется
Job все еще выполняется
Job все еще выполняется
Job все еще выполняется
Job все еще выполняется
Job все еще выполняется
Job все еще выполняется
Job все еще выполняется
Job все еще выполняется
Job все еще выполняется
Job все еще выполняется
Job все еще выполняется
Job все еще выполняется
persistentvolumeclaim "dbench" deleted
job.batch "dbench" deleted
Тест под номером 52 завершен, результаты записаны
persistentvolumeclaim/dbench created
job.batch/dbench created
Job все еще выполняется
Job все еще выполняется
Job все еще выполняется
Job все еще выполняется
Job все еще выполняется
Job все еще выполняется
Job все еще выполняется
Job все еще выполняется
Job все еще выполняется
Job все еще выполняется
Job все еще выполняется
Job все еще выполняется
Job все еще выполняется
Job все еще выполняется
Job все еще выполняется
Job все еще выполняется
Job все еще выполняется
Job все еще выполняется
Job все еще выполняется
Job все еще выполняется
Job все еще выполняется
Job все еще выполняется
Job все еще выполняется
persistentvolumeclaim "dbench" deleted
job.batch "dbench" deleted
Тест под номером 53 завершен, результаты записаны
persistentvolumeclaim/dbench created
job.batch/dbench created
Job все еще выполняется
Job все еще выполняется
Job все еще выполняется
Job все еще выполняется
Job все еще выполняется
Job все еще выполняется
Job все еще выполняется
Job все еще выполняется
Job все еще выполняется
Job все еще выполняется
Job все еще выполняется
Job все еще выполняется
Job все еще выполняется
Job все еще выполняется
Job все еще выполняется
Job все еще выполняется
Job все еще выполняется
Job все еще выполняется
Job все еще выполняется
Job все еще выполняется
Job все еще выполняется
Job все еще выполняется
persistentvolumeclaim "dbench" deleted
job.batch "dbench" deleted
Тест под номером 54 завершен, результаты записаны
persistentvolumeclaim/dbench created
job.batch/dbench created
Job все еще выполняется
Job все еще выполняется
Job все еще выполняется
Job все еще выполняется
Job все еще выполняется
Job все еще выполняется
Job все еще выполняется
Job все еще выполняется
Job все еще выполняется
Job все еще выполняется
Job все еще выполняется
Job все еще выполняется
Job все еще выполняется
Job все еще выполняется
Job все еще выполняется
Job все еще выполняется
Job все еще выполняется
Job все еще выполняется
Job все еще выполняется
Job все еще выполняется
Job все еще выполняется
Job все еще выполняется
Job все еще выполняется
persistentvolumeclaim "dbench" deleted
job.batch "dbench" deleted
Тест под номером 55 завершен, результаты записаны
persistentvolumeclaim/dbench created
job.batch/dbench created
Job все еще выполняется
Job все еще выполняется
Job все еще выполняется
Job все еще выполняется
Job все еще выполняется
Job все еще выполняется
Job все еще выполняется
Job все еще выполняется
Job все еще выполняется
Job все еще выполняется
Job все еще выполняется
Job все еще выполняется
Job все еще выполняется
Job все еще выполняется
Job все еще выполняется
Job все еще выполняется
Job все еще выполняется
Job все еще выполняется
Job все еще выполняется
Job все еще выполняется
Job все еще выполняется
persistentvolumeclaim "dbench" deleted
job.batch "dbench" deleted
Тест под номером 56 завершен, результаты записаны
persistentvolumeclaim/dbench created
job.batch/dbench created
Job все еще выполняется
Job все еще выполняется
Job все еще выполняется
Job все еще выполняется
Job все еще выполняется
Job все еще выполняется
Job все еще выполняется
Job все еще выполняется
Job все еще выполняется
Job все еще выполняется
Job все еще выполняется
Job все еще выполняется
Job все еще выполняется
Job все еще выполняется
Job все еще выполняется
Job все еще выполняется
Job все еще выполняется
Job все еще выполняется
Job все еще выполняется
Job все еще выполняется
Job все еще выполняется
Job все еще выполняется
Job все еще выполняется
persistentvolumeclaim "dbench" deleted
job.batch "dbench" deleted
Тест под номером 57 завершен, результаты записаны
persistentvolumeclaim/dbench created
job.batch/dbench created
Job все еще выполняется
Job все еще выполняется
Job все еще выполняется
Job все еще выполняется
Job все еще выполняется
Job все еще выполняется
Job все еще выполняется
Job все еще выполняется
Job все еще выполняется
Job все еще выполняется
Job все еще выполняется
Job все еще выполняется
Job все еще выполняется
Job все еще выполняется
Job все еще выполняется
Job все еще выполняется
Job все еще выполняется
Job все еще выполняется
Job все еще выполняется
Job все еще выполняется
Job все еще выполняется
Job все еще выполняется
persistentvolumeclaim "dbench" deleted
job.batch "dbench" deleted
Тест под номером 58 завершен, результаты записаны
persistentvolumeclaim/dbench created
job.batch/dbench created
Job все еще выполняется
Job все еще выполняется
Job все еще выполняется
Job все еще выполняется
Job все еще выполняется
Job все еще выполняется
Job все еще выполняется
Job все еще выполняется
Job все еще выполняется
Job все еще выполняется
Job все еще выполняется
Job все еще выполняется
Job все еще выполняется
Job все еще выполняется
Job все еще выполняется
Job все еще выполняется
Job все еще выполняется
Job все еще выполняется
Job все еще выполняется
Job все еще выполняется
Job все еще выполняется
Job все еще выполняется
persistentvolumeclaim "dbench" deleted
job.batch "dbench" deleted
Тест под номером 59 завершен, результаты записаны
persistentvolumeclaim/dbench created
job.batch/dbench created
Job все еще выполняется
Job все еще выполняется
Job все еще выполняется
Job все еще выполняется
Job все еще выполняется
Job все еще выполняется
Job все еще выполняется
Job все еще выполняется
Job все еще выполняется
Job все еще выполняется
Job все еще выполняется
Job все еще выполняется
Job все еще выполняется
Job все еще выполняется
Job все еще выполняется
Job все еще выполняется
Job все еще выполняется
Job все еще выполняется
Job все еще выполняется
Job все еще выполняется
Job все еще выполняется
Job все еще выполняется
persistentvolumeclaim "dbench" deleted
job.batch "dbench" deleted
Тест под номером 60 завершен, результаты записаны
persistentvolumeclaim/dbench created
job.batch/dbench created
Job все еще выполняется
Job все еще выполняется
Job все еще выполняется
Job все еще выполняется
Job все еще выполняется
Job все еще выполняется
Job все еще выполняется
Job все еще выполняется
Job все еще выполняется
Job все еще выполняется
Job все еще выполняется
Job все еще выполняется
Job все еще выполняется
Job все еще выполняется
Job все еще выполняется
Job все еще выполняется
Job все еще выполняется
Job все еще выполняется
Job все еще выполняется
Job все еще выполняется
Job все еще выполняется
Job все еще выполняется
persistentvolumeclaim "dbench" deleted
job.batch "dbench" deleted
Тест под номером 61 завершен, результаты записаны
persistentvolumeclaim/dbench created
job.batch/dbench created
Job все еще выполняется
Job все еще выполняется
Job все еще выполняется
Job все еще выполняется
Job все еще выполняется
Job все еще выполняется
Job все еще выполняется
Job все еще выполняется
Job все еще выполняется
Job все еще выполняется
Job все еще выполняется
Job все еще выполняется
Job все еще выполняется
Job все еще выполняется
Job все еще выполняется
Job все еще выполняется
Job все еще выполняется
Job все еще выполняется
Job все еще выполняется
Job все еще выполняется
Job все еще выполняется
Job все еще выполняется
persistentvolumeclaim "dbench" deleted
job.batch "dbench" deleted
Тест под номером 62 завершен, результаты записаны
persistentvolumeclaim/dbench created
job.batch/dbench created
Job все еще выполняется
Job все еще выполняется
Job все еще выполняется
Job все еще выполняется
Job все еще выполняется
Job все еще выполняется
Job все еще выполняется
Job все еще выполняется
Job все еще выполняется
Job все еще выполняется
Job все еще выполняется
Job все еще выполняется
Job все еще выполняется
Job все еще выполняется
Job все еще выполняется
Job все еще выполняется
Job все еще выполняется
Job все еще выполняется
Job все еще выполняется
Job все еще выполняется
Job все еще выполняется
Job все еще выполняется
persistentvolumeclaim "dbench" deleted
job.batch "dbench" deleted
Тест под номером 63 завершен, результаты записаны
persistentvolumeclaim/dbench created
job.batch/dbench created
Job все еще выполняется
Job все еще выполняется
Job все еще выполняется
Job все еще выполняется
Job все еще выполняется
Job все еще выполняется
Job все еще выполняется
Job все еще выполняется
Job все еще выполняется
Job все еще выполняется
Job все еще выполняется
Job все еще выполняется
Job все еще выполняется
Job все еще выполняется
Job все еще выполняется
Job все еще выполняется
Job все еще выполняется
Job все еще выполняется
Job все еще выполняется
Job все еще выполняется
Job все еще выполняется
Job все еще выполняется
persistentvolumeclaim "dbench" deleted
job.batch "dbench" deleted
Тест под номером 64 завершен, результаты записаны
persistentvolumeclaim/dbench created
job.batch/dbench created
Job все еще выполняется
Job все еще выполняется
Job все еще выполняется
Job все еще выполняется
Job все еще выполняется
Job все еще выполняется
Job все еще выполняется
Job все еще выполняется
Job все еще выполняется
Job все еще выполняется
Job все еще выполняется
Job все еще выполняется
Job все еще выполняется
Job все еще выполняется
Job все еще выполняется
Job все еще выполняется
Job все еще выполняется
Job все еще выполняется
Job все еще выполняется
Job все еще выполняется
Job все еще выполняется
Job все еще выполняется
persistentvolumeclaim "dbench" deleted
job.batch "dbench" deleted
Тест под номером 65 завершен, результаты записаны
persistentvolumeclaim/dbench created
job.batch/dbench created
Job все еще выполняется
Job все еще выполняется
Job все еще выполняется
Job все еще выполняется
Job все еще выполняется
Job все еще выполняется
Job все еще выполняется
Job все еще выполняется
Job все еще выполняется
Job все еще выполняется
Job все еще выполняется
Job все еще выполняется
Job все еще выполняется
Job все еще выполняется
Job все еще выполняется
Job все еще выполняется
Job все еще выполняется
Job все еще выполняется
Job все еще выполняется
Job все еще выполняется
Job все еще выполняется
Job все еще выполняется
persistentvolumeclaim "dbench" deleted
job.batch "dbench" deleted
Тест под номером 66 завершен, результаты записаны
persistentvolumeclaim/dbench created
job.batch/dbench created
Job все еще выполняется
Job все еще выполняется
Job все еще выполняется
Job все еще выполняется
Job все еще выполняется
Job все еще выполняется
Job все еще выполняется
Job все еще выполняется
Job все еще выполняется
Job все еще выполняется
Job все еще выполняется
Job все еще выполняется
Job все еще выполняется
Job все еще выполняется
Job все еще выполняется
Job все еще выполняется
Job все еще выполняется
Job все еще выполняется
Job все еще выполняется
Job все еще выполняется
Job все еще выполняется
Job все еще выполняется
Job все еще выполняется
persistentvolumeclaim "dbench" deleted
job.batch "dbench" deleted
Тест под номером 67 завершен, результаты записаны
persistentvolumeclaim/dbench created
job.batch/dbench created
Job все еще выполняется
Job все еще выполняется
Job все еще выполняется
Job все еще выполняется
Job все еще выполняется
Job все еще выполняется
Job все еще выполняется
Job все еще выполняется
Job все еще выполняется
Job все еще выполняется
Job все еще выполняется
Job все еще выполняется
Job все еще выполняется
Job все еще выполняется
Job все еще выполняется
Job все еще выполняется
Job все еще выполняется
Job все еще выполняется
Job все еще выполняется
Job все еще выполняется
Job все еще выполняется
Job все еще выполняется
Job все еще выполняется
Job все еще выполняется
Job все еще выполняется
persistentvolumeclaim "dbench" deleted
job.batch "dbench" deleted
Тест под номером 68 завершен, результаты записаны
persistentvolumeclaim/dbench created
job.batch/dbench created
Job все еще выполняется
Job все еще выполняется
Job все еще выполняется
Job все еще выполняется
Job все еще выполняется
Job все еще выполняется
Job все еще выполняется
Job все еще выполняется
Job все еще выполняется
Job все еще выполняется
Job все еще выполняется
Job все еще выполняется
Job все еще выполняется
Job все еще выполняется
Job все еще выполняется
Job все еще выполняется
Job все еще выполняется
Job все еще выполняется
Job все еще выполняется
Job все еще выполняется
Job все еще выполняется
Job все еще выполняется
Job все еще выполняется
Job все еще выполняется
persistentvolumeclaim "dbench" deleted
job.batch "dbench" deleted
Тест под номером 69 завершен, результаты записаны
persistentvolumeclaim/dbench created
job.batch/dbench created
Job все еще выполняется
Job все еще выполняется
Job все еще выполняется
Job все еще выполняется
Job все еще выполняется
Job все еще выполняется
Job все еще выполняется
Job все еще выполняется
Job все еще выполняется
Job все еще выполняется
Job все еще выполняется
Job все еще выполняется
Job все еще выполняется
Job все еще выполняется
Job все еще выполняется
Job все еще выполняется
Job все еще выполняется
Job все еще выполняется
Job все еще выполняется
Job все еще выполняется
Job все еще выполняется
Job все еще выполняется
Job все еще выполняется
Job все еще выполняется
Job все еще выполняется
Job все еще выполняется
Job все еще выполняется
Job все еще выполняется
Job все еще выполняется
Job все еще выполняется
Job все еще выполняется
Job все еще выполняется
persistentvolumeclaim "dbench" deleted
job.batch "dbench" deleted
Тест под номером 70 завершен, результаты записаны
persistentvolumeclaim/dbench created
job.batch/dbench created
Job все еще выполняется
Job все еще выполняется
Job все еще выполняется
Job все еще выполняется
Job все еще выполняется
Job все еще выполняется
Job все еще выполняется
Job все еще выполняется
Job все еще выполняется
Job все еще выполняется
Job все еще выполняется
Job все еще выполняется
Job все еще выполняется
Job все еще выполняется
Job все еще выполняется
Job все еще выполняется
Job все еще выполняется
Job все еще выполняется
Job все еще выполняется
Job все еще выполняется
Job все еще выполняется
Job все еще выполняется
Job все еще выполняется
Job все еще выполняется
Job все еще выполняется
Job все еще выполняется
Job все еще выполняется
Job все еще выполняется
Job все еще выполняется
Job все еще выполняется
Job все еще выполняется
persistentvolumeclaim "dbench" deleted
job.batch "dbench" deleted
Тест под номером 71 завершен, результаты записаны
persistentvolumeclaim/dbench created
job.batch/dbench created
Job все еще выполняется
Job все еще выполняется
Job все еще выполняется
Job все еще выполняется
Job все еще выполняется
Job все еще выполняется
Job все еще выполняется
Job все еще выполняется
Job все еще выполняется
Job все еще выполняется
Job все еще выполняется
Job все еще выполняется
Job все еще выполняется
Job все еще выполняется
Job все еще выполняется
Job все еще выполняется
Job все еще выполняется
Job все еще выполняется
Job все еще выполняется
Job все еще выполняется
Job все еще выполняется
Job все еще выполняется
Job все еще выполняется
Job все еще выполняется
Job все еще выполняется
Job все еще выполняется
Job все еще выполняется
persistentvolumeclaim "dbench" deleted
job.batch "dbench" deleted
Тест под номером 72 завершен, результаты записаны
persistentvolumeclaim/dbench created
job.batch/dbench created
Job все еще выполняется
Job все еще выполняется
Job все еще выполняется
Job все еще выполняется
Job все еще выполняется
Job все еще выполняется
Job все еще выполняется
Job все еще выполняется
Job все еще выполняется
Job все еще выполняется
Job все еще выполняется
Job все еще выполняется
Job все еще выполняется
Job все еще выполняется
Job все еще выполняется
Job все еще выполняется
Job все еще выполняется
Job все еще выполняется
Job все еще выполняется
Job все еще выполняется
Job все еще выполняется
Job все еще выполняется
Job все еще выполняется
Job все еще выполняется
Job все еще выполняется
Job все еще выполняется
Job все еще выполняется
Job все еще выполняется
Job все еще выполняется
Job все еще выполняется
persistentvolumeclaim "dbench" deleted
job.batch "dbench" deleted
Тест под номером 73 завершен, результаты записаны
persistentvolumeclaim/dbench created
job.batch/dbench created
Job все еще выполняется
Job все еще выполняется
Job все еще выполняется
Job все еще выполняется
Job все еще выполняется
Job все еще выполняется
Job все еще выполняется
Job все еще выполняется
Job все еще выполняется
Job все еще выполняется
Job все еще выполняется
Job все еще выполняется
Job все еще выполняется
Job все еще выполняется
Job все еще выполняется
Job все еще выполняется
Job все еще выполняется
Job все еще выполняется
Job все еще выполняется
Job все еще выполняется
Job все еще выполняется
Job все еще выполняется
Job все еще выполняется
persistentvolumeclaim "dbench" deleted
job.batch "dbench" deleted
Тест под номером 74 завершен, результаты записаны
persistentvolumeclaim/dbench created
job.batch/dbench created
Job все еще выполняется
Job все еще выполняется
Job все еще выполняется
Job все еще выполняется
Job все еще выполняется
Job все еще выполняется
Job все еще выполняется
Job все еще выполняется
Job все еще выполняется
Job все еще выполняется
Job все еще выполняется
Job все еще выполняется
Job все еще выполняется
Job все еще выполняется
Job все еще выполняется
Job все еще выполняется
Job все еще выполняется
Job все еще выполняется
Job все еще выполняется
Job все еще выполняется
Job все еще выполняется
Job все еще выполняется
Job все еще выполняется
persistentvolumeclaim "dbench" deleted
job.batch "dbench" deleted
Тест под номером 75 завершен, результаты записаны
persistentvolumeclaim/dbench created
job.batch/dbench created
Job все еще выполняется
Job все еще выполняется
Job все еще выполняется
Job все еще выполняется
Job все еще выполняется
Job все еще выполняется
Job все еще выполняется
Job все еще выполняется
Job все еще выполняется
Job все еще выполняется
Job все еще выполняется
Job все еще выполняется
Job все еще выполняется
Job все еще выполняется
Job все еще выполняется
Job все еще выполняется
Job все еще выполняется
Job все еще выполняется
Job все еще выполняется
Job все еще выполняется
Job все еще выполняется
persistentvolumeclaim "dbench" deleted
job.batch "dbench" deleted
Тест под номером 76 завершен, результаты записаны
persistentvolumeclaim/dbench created
job.batch/dbench created
Job все еще выполняется
Job все еще выполняется
Job все еще выполняется
Job все еще выполняется
Job все еще выполняется
Job все еще выполняется
Job все еще выполняется
Job все еще выполняется
Job все еще выполняется
Job все еще выполняется
Job все еще выполняется
Job все еще выполняется
Job все еще выполняется
Job все еще выполняется
Job все еще выполняется
Job все еще выполняется
Job все еще выполняется
Job все еще выполняется
Job все еще выполняется
Job все еще выполняется
Job все еще выполняется
Job все еще выполняется
Job все еще выполняется
Job все еще выполняется
Job все еще выполняется
persistentvolumeclaim "dbench" deleted
job.batch "dbench" deleted
Тест под номером 77 завершен, результаты записаны
persistentvolumeclaim/dbench created
job.batch/dbench created
Job все еще выполняется
Job все еще выполняется
Job все еще выполняется
Job все еще выполняется
Job все еще выполняется
Job все еще выполняется
Job все еще выполняется
Job все еще выполняется
Job все еще выполняется
Job все еще выполняется
Job все еще выполняется
Job все еще выполняется
Job все еще выполняется
Job все еще выполняется
Job все еще выполняется
Job все еще выполняется
Job все еще выполняется
Job все еще выполняется
Job все еще выполняется
Job все еще выполняется
Job все еще выполняется
Job все еще выполняется
Job все еще выполняется
Job все еще выполняется
Job все еще выполняется
persistentvolumeclaim "dbench" deleted
job.batch "dbench" deleted
Тест под номером 78 завершен, результаты записаны
persistentvolumeclaim/dbench created
job.batch/dbench created
Job все еще выполняется
Job все еще выполняется
Job все еще выполняется
Job все еще выполняется
Job все еще выполняется
Job все еще выполняется
Job все еще выполняется
Job все еще выполняется
Job все еще выполняется
Job все еще выполняется
Job все еще выполняется
Job все еще выполняется
Job все еще выполняется
Job все еще выполняется
Job все еще выполняется
Job все еще выполняется
Job все еще выполняется
Job все еще выполняется
Job все еще выполняется
Job все еще выполняется
Job все еще выполняется
Job все еще выполняется
Job все еще выполняется
Job все еще выполняется
Job все еще выполняется
Job все еще выполняется
Job все еще выполняется
Job все еще выполняется
Job все еще выполняется
persistentvolumeclaim "dbench" deleted
job.batch "dbench" deleted
Тест под номером 79 завершен, результаты записаны
persistentvolumeclaim/dbench created
job.batch/dbench created
Job все еще выполняется
Job все еще выполняется
Job все еще выполняется
Job все еще выполняется
Job все еще выполняется
Job все еще выполняется
Job все еще выполняется
Job все еще выполняется
Job все еще выполняется
Job все еще выполняется
Job все еще выполняется
Job все еще выполняется
Job все еще выполняется
Job все еще выполняется
Job все еще выполняется
Job все еще выполняется
Job все еще выполняется
Job все еще выполняется
Job все еще выполняется
Job все еще выполняется
Job все еще выполняется
Job все еще выполняется
Job все еще выполняется
persistentvolumeclaim "dbench" deleted
job.batch "dbench" deleted
Тест под номером 80 завершен, результаты записаны
persistentvolumeclaim/dbench created
job.batch/dbench created
Job все еще выполняется
Job все еще выполняется
Job все еще выполняется
Job все еще выполняется
Job все еще выполняется
Job все еще выполняется
Job все еще выполняется
Job все еще выполняется
Job все еще выполняется
Job все еще выполняется
Job все еще выполняется
Job все еще выполняется
Job все еще выполняется
Job все еще выполняется
Job все еще выполняется
Job все еще выполняется
Job все еще выполняется
Job все еще выполняется
Job все еще выполняется
Job все еще выполняется
Job все еще выполняется
Job все еще выполняется
persistentvolumeclaim "dbench" deleted
job.batch "dbench" deleted
Тест под номером 81 завершен, результаты записаны
persistentvolumeclaim/dbench created
job.batch/dbench created
Job все еще выполняется
Job все еще выполняется
Job все еще выполняется
Job все еще выполняется
Job все еще выполняется
Job все еще выполняется
Job все еще выполняется
Job все еще выполняется
Job все еще выполняется
Job все еще выполняется
Job все еще выполняется
Job все еще выполняется
Job все еще выполняется
Job все еще выполняется
Job все еще выполняется
Job все еще выполняется
Job все еще выполняется
Job все еще выполняется
Job все еще выполняется
Job все еще выполняется
Job все еще выполняется
Job все еще выполняется
Job все еще выполняется
persistentvolumeclaim "dbench" deleted
job.batch "dbench" deleted
Тест под номером 82 завершен, результаты записаны
persistentvolumeclaim/dbench created
job.batch/dbench created
Job все еще выполняется
Job все еще выполняется
Job все еще выполняется
Job все еще выполняется
Job все еще выполняется
Job все еще выполняется
Job все еще выполняется
Job все еще выполняется
Job все еще выполняется
Job все еще выполняется
Job все еще выполняется
Job все еще выполняется
Job все еще выполняется
Job все еще выполняется
Job все еще выполняется
Job все еще выполняется
Job все еще выполняется
Job все еще выполняется
Job все еще выполняется
Job все еще выполняется
Job все еще выполняется
Job все еще выполняется
persistentvolumeclaim "dbench" deleted
job.batch "dbench" deleted
Тест под номером 83 завершен, результаты записаны
persistentvolumeclaim/dbench created
job.batch/dbench created
Job все еще выполняется
Job все еще выполняется
Job все еще выполняется
Job все еще выполняется
Job все еще выполняется
Job все еще выполняется
Job все еще выполняется
Job все еще выполняется
Job все еще выполняется
Job все еще выполняется
Job все еще выполняется
Job все еще выполняется
Job все еще выполняется
Job все еще выполняется
Job все еще выполняется
Job все еще выполняется
Job все еще выполняется
Job все еще выполняется
Job все еще выполняется
Job все еще выполняется
Job все еще выполняется
Job все еще выполняется
Job все еще выполняется
persistentvolumeclaim "dbench" deleted
job.batch "dbench" deleted
Тест под номером 84 завершен, результаты записаны
persistentvolumeclaim/dbench created
job.batch/dbench created
Job все еще выполняется
Job все еще выполняется
Job все еще выполняется
Job все еще выполняется
Job все еще выполняется
Job все еще выполняется
Job все еще выполняется
Job все еще выполняется
Job все еще выполняется
Job все еще выполняется
Job все еще выполняется
Job все еще выполняется
Job все еще выполняется
Job все еще выполняется
Job все еще выполняется
Job все еще выполняется
Job все еще выполняется
Job все еще выполняется
Job все еще выполняется
Job все еще выполняется
Job все еще выполняется
Job все еще выполняется
Job все еще выполняется
persistentvolumeclaim "dbench" deleted
job.batch "dbench" deleted
Тест под номером 85 завершен, результаты записаны
persistentvolumeclaim/dbench created
job.batch/dbench created
Job все еще выполняется
Job все еще выполняется
Job все еще выполняется
Job все еще выполняется
Job все еще выполняется
Job все еще выполняется
Job все еще выполняется
Job все еще выполняется
Job все еще выполняется
Job все еще выполняется
Job все еще выполняется
Job все еще выполняется
Job все еще выполняется
Job все еще выполняется
Job все еще выполняется
Job все еще выполняется
Job все еще выполняется
Job все еще выполняется
Job все еще выполняется
Job все еще выполняется
Job все еще выполняется
Job все еще выполняется
persistentvolumeclaim "dbench" deleted
job.batch "dbench" deleted
Тест под номером 86 завершен, результаты записаны
persistentvolumeclaim/dbench created
job.batch/dbench created
Job все еще выполняется
Job все еще выполняется
Job все еще выполняется
Job все еще выполняется
Job все еще выполняется
Job все еще выполняется
Job все еще выполняется
Job все еще выполняется
Job все еще выполняется
Job все еще выполняется
Job все еще выполняется
Job все еще выполняется
Job все еще выполняется
Job все еще выполняется
Job все еще выполняется
Job все еще выполняется
Job все еще выполняется
Job все еще выполняется
Job все еще выполняется
Job все еще выполняется
Job все еще выполняется
Job все еще выполняется
persistentvolumeclaim "dbench" deleted
job.batch "dbench" deleted
Тест под номером 87 завершен, результаты записаны
persistentvolumeclaim/dbench created
job.batch/dbench created
Job все еще выполняется
Job все еще выполняется
Job все еще выполняется
Job все еще выполняется
Job все еще выполняется
Job все еще выполняется
Job все еще выполняется
Job все еще выполняется
Job все еще выполняется
Job все еще выполняется
Job все еще выполняется
Job все еще выполняется
Job все еще выполняется
Job все еще выполняется
Job все еще выполняется
Job все еще выполняется
Job все еще выполняется
Job все еще выполняется
Job все еще выполняется
Job все еще выполняется
Job все еще выполняется
Job все еще выполняется
Job все еще выполняется
persistentvolumeclaim "dbench" deleted
job.batch "dbench" deleted
Тест под номером 88 завершен, результаты записаны
persistentvolumeclaim/dbench created
job.batch/dbench created
Job все еще выполняется
Job все еще выполняется
Job все еще выполняется
Job все еще выполняется
Job все еще выполняется
Job все еще выполняется
Job все еще выполняется
Job все еще выполняется
Job все еще выполняется
Job все еще выполняется
Job все еще выполняется
Job все еще выполняется
Job все еще выполняется
Job все еще выполняется
Job все еще выполняется
Job все еще выполняется
Job все еще выполняется
Job все еще выполняется
Job все еще выполняется
Job все еще выполняется
Job все еще выполняется
Job все еще выполняется
persistentvolumeclaim "dbench" deleted
job.batch "dbench" deleted
Тест под номером 89 завершен, результаты записаны
persistentvolumeclaim/dbench created
job.batch/dbench created
Job все еще выполняется
Job все еще выполняется
Job все еще выполняется
Job все еще выполняется
Job все еще выполняется
Job все еще выполняется
Job все еще выполняется
Job все еще выполняется
Job все еще выполняется
Job все еще выполняется
Job все еще выполняется
Job все еще выполняется
Job все еще выполняется
Job все еще выполняется
Job все еще выполняется
Job все еще выполняется
Job все еще выполняется
Job все еще выполняется
Job все еще выполняется
Job все еще выполняется
Job все еще выполняется
Job все еще выполняется
persistentvolumeclaim "dbench" deleted
job.batch "dbench" deleted
Тест под номером 90 завершен, результаты записаны
persistentvolumeclaim/dbench created
job.batch/dbench created
Job все еще выполняется
Job все еще выполняется
Job все еще выполняется
Job все еще выполняется
Job все еще выполняется
Job все еще выполняется
Job все еще выполняется
Job все еще выполняется
Job все еще выполняется
Job все еще выполняется
Job все еще выполняется
Job все еще выполняется
Job все еще выполняется
Job все еще выполняется
Job все еще выполняется
Job все еще выполняется
Job все еще выполняется
Job все еще выполняется
Job все еще выполняется
Job все еще выполняется
Job все еще выполняется
Job все еще выполняется
persistentvolumeclaim "dbench" deleted
job.batch "dbench" deleted
Тест под номером 91 завершен, результаты записаны
persistentvolumeclaim/dbench created
job.batch/dbench created
Job все еще выполняется
Job все еще выполняется
Job все еще выполняется
Job все еще выполняется
Job все еще выполняется
Job все еще выполняется
Job все еще выполняется
Job все еще выполняется
Job все еще выполняется
Job все еще выполняется
Job все еще выполняется
Job все еще выполняется
Job все еще выполняется
Job все еще выполняется
Job все еще выполняется
Job все еще выполняется
Job все еще выполняется
Job все еще выполняется
Job все еще выполняется
Job все еще выполняется
Job все еще выполняется
Job все еще выполняется
persistentvolumeclaim "dbench" deleted
job.batch "dbench" deleted
Тест под номером 92 завершен, результаты записаны
persistentvolumeclaim/dbench created
job.batch/dbench created
Job все еще выполняется
Job все еще выполняется
Job все еще выполняется
Job все еще выполняется
Job все еще выполняется
Job все еще выполняется
Job все еще выполняется
Job все еще выполняется
Job все еще выполняется
Job все еще выполняется
Job все еще выполняется
Job все еще выполняется
Job все еще выполняется
Job все еще выполняется
Job все еще выполняется
Job все еще выполняется
Job все еще выполняется
Job все еще выполняется
Job все еще выполняется
Job все еще выполняется
Job все еще выполняется
persistentvolumeclaim "dbench" deleted
job.batch "dbench" deleted
Тест под номером 93 завершен, результаты записаны
persistentvolumeclaim/dbench created
job.batch/dbench created
Job все еще выполняется
Job все еще выполняется
Job все еще выполняется
Job все еще выполняется
Job все еще выполняется
Job все еще выполняется
Job все еще выполняется
Job все еще выполняется
Job все еще выполняется
Job все еще выполняется
Job все еще выполняется
Job все еще выполняется
Job все еще выполняется
Job все еще выполняется
Job все еще выполняется
Job все еще выполняется
Job все еще выполняется
Job все еще выполняется
Job все еще выполняется
Job все еще выполняется
Job все еще выполняется
Job все еще выполняется
persistentvolumeclaim "dbench" deleted
job.batch "dbench" deleted
Тест под номером 94 завершен, результаты записаны
persistentvolumeclaim/dbench created
job.batch/dbench created
Job все еще выполняется
Job все еще выполняется
Job все еще выполняется
Job все еще выполняется
Job все еще выполняется
Job все еще выполняется
Job все еще выполняется
Job все еще выполняется
Job все еще выполняется
Job все еще выполняется
Job все еще выполняется
Job все еще выполняется
Job все еще выполняется
Job все еще выполняется
Job все еще выполняется
Job все еще выполняется
Job все еще выполняется
Job все еще выполняется
Job все еще выполняется
Job все еще выполняется
Job все еще выполняется
Job все еще выполняется
persistentvolumeclaim "dbench" deleted
job.batch "dbench" deleted
Тест под номером 95 завершен, результаты записаны
persistentvolumeclaim/dbench created
job.batch/dbench created
Job все еще выполняется
Job все еще выполняется
Job все еще выполняется
Job все еще выполняется
Job все еще выполняется
Job все еще выполняется
Job все еще выполняется
Job все еще выполняется
Job все еще выполняется
Job все еще выполняется
Job все еще выполняется
Job все еще выполняется
Job все еще выполняется
Job все еще выполняется
Job все еще выполняется
Job все еще выполняется
Job все еще выполняется
Job все еще выполняется
Job все еще выполняется
Job все еще выполняется
Job все еще выполняется
Job все еще выполняется
persistentvolumeclaim "dbench" deleted
job.batch "dbench" deleted
Тест под номером 96 завершен, результаты записаны
persistentvolumeclaim/dbench created
job.batch/dbench created
Job все еще выполняется
Job все еще выполняется
Job все еще выполняется
Job все еще выполняется
Job все еще выполняется
Job все еще выполняется
Job все еще выполняется
Job все еще выполняется
Job все еще выполняется
Job все еще выполняется
Job все еще выполняется
Job все еще выполняется
Job все еще выполняется
Job все еще выполняется
Job все еще выполняется
Job все еще выполняется
Job все еще выполняется
Job все еще выполняется
Job все еще выполняется
Job все еще выполняется
Job все еще выполняется
Job все еще выполняется
Job все еще выполняется
Job все еще выполняется
Job все еще выполняется
persistentvolumeclaim "dbench" deleted
job.batch "dbench" deleted
Тест под номером 97 завершен, результаты записаны
persistentvolumeclaim/dbench created
job.batch/dbench created
Job все еще выполняется
Job все еще выполняется
Job все еще выполняется
Job все еще выполняется
Job все еще выполняется
Job все еще выполняется
Job все еще выполняется
Job все еще выполняется
Job все еще выполняется
Job все еще выполняется
Job все еще выполняется
Job все еще выполняется
Job все еще выполняется
Job все еще выполняется
Job все еще выполняется
Job все еще выполняется
Job все еще выполняется
Job все еще выполняется
Job все еще выполняется
Job все еще выполняется
Job все еще выполняется
persistentvolumeclaim "dbench" deleted
job.batch "dbench" deleted
Тест под номером 98 завершен, результаты записаны
persistentvolumeclaim/dbench created
job.batch/dbench created
Job все еще выполняется
Job все еще выполняется
Job все еще выполняется
Job все еще выполняется
Job все еще выполняется
Job все еще выполняется
Job все еще выполняется
Job все еще выполняется
Job все еще выполняется
Job все еще выполняется
Job все еще выполняется
Job все еще выполняется
Job все еще выполняется
Job все еще выполняется
Job все еще выполняется
Job все еще выполняется
Job все еще выполняется
Job все еще выполняется
Job все еще выполняется
Job все еще выполняется
Job все еще выполняется
Job все еще выполняется
persistentvolumeclaim "dbench" deleted
job.batch "dbench" deleted
Тест под номером 99 завершен, результаты записаны
persistentvolumeclaim/dbench created
job.batch/dbench created
Job все еще выполняется
Job все еще выполняется
Job все еще выполняется
Job все еще выполняется
Job все еще выполняется
Job все еще выполняется
Job все еще выполняется
Job все еще выполняется
Job все еще выполняется
Job все еще выполняется
Job все еще выполняется
Job все еще выполняется
Job все еще выполняется
Job все еще выполняется
Job все еще выполняется
Job все еще выполняется
Job все еще выполняется
Job все еще выполняется
Job все еще выполняется
Job все еще выполняется
Job все еще выполняется
Job все еще выполняется
persistentvolumeclaim "dbench" deleted
job.batch "dbench" deleted
Тест под номером 100 завершен, результаты записаны
