 10.3MiB/s
 11.2MiB/s
 16.9MiB/s
 10.7MiB/s
 7595KiB/s
 8778KiB/s
 15.8MiB/s
 14.1MiB/s
 17.7MiB/s
 16.7MiB/s
 13.5MiB/s
 15.2MiB/s
 16.3MiB/s
 6630KiB/s
 8835KiB/s
 13.2MiB/s
 9.99MiB/s
 16.1MiB/s
 17.6MiB/s
 15.5MiB/s
 13.2MiB/s
 13.1MiB/s
 15.1MiB/s
 17.1MiB/s
 15.2MiB/s
 16.3MiB/s
 13.7MiB/s
 16.4MiB/s
 15.7MiB/s
 16.5MiB/s
 10.7MiB/s
 15.9MiB/s
 13.3MiB/s
 16.9MiB/s
 14.1MiB/s
 13.1MiB/s
 17.8MiB/s
 15.1MiB/s
 16.2MiB/s
 15.7MiB/s
 19.8MiB/s
 17.5MiB/s
 15.9MiB/s
 15.2MiB/s
 13.5MiB/s
 6962KiB/s
 16.8MiB/s
 15.2MiB/s
 9677KiB/s
 11.2MiB/s
 16.9MiB/s
 8084KiB/s
 14.2MiB/s
 16.5MiB/s
 15.3MiB/s
 18.2MiB/s
 13.1MiB/s
 8522KiB/s
 9.91MiB/s
 8862KiB/s
 14.3MiB/s
 13.9MiB/s
 15.4MiB/s
 17.6MiB/s
 16.6MiB/s
 15.9MiB/s
 9353KiB/s
 7601KiB/s
 4898KiB/s
 11.7MiB/s
 16.7MiB/s
 12.6MiB/s
 13.6MiB/s
 10.8MiB/s
 12.9MiB/s
 12.8MiB/s
 12.3MiB/s
 14.3MiB/s
 12.7MiB/s
 11.3MiB/s
 11.2MiB/s
 13.3MiB/s
 14.3MiB/s
 9574KiB/s
 12.1MiB/s
 9.91MiB/s
 11.4MiB/s
 7959KiB/s
 9804KiB/s
 10.5MiB/s
 2762KiB/s
 15.7MiB/s
 11.8MiB/s
 10.2MiB/s
 6846KiB/s
 12.2MiB/s
 11.9MiB/s
 10.4MiB/s
 14.1MiB/s
 17.6MiB/s
 16.2MiB/s
 11.3MiB/s
 11.5MiB/s
