 41.6MiB/s
 40.7MiB/s
 26.2MiB/s
 26.4MiB/s
 34.7MiB/s
 21.1MiB/s
 22.5MiB/s
 22.4MiB/s
 21.7MiB/s
 27.7MiB/s
 31.1MiB/s
 28.8MiB/s
 31.5MiB/s
 19.8MiB/s
 29.9MiB/s
 39.8MiB/s
 24.4MiB/s
 32.7MiB/s
 24.4MiB/s
 28.6MiB/s
 40.9MiB/s
 40.4MiB/s
 39.5MiB/s
 37.3MiB/s
 26.4MiB/s
 23.6MiB/s
 24.7MiB/s
 15.6MiB/s
 22.2MiB/s
 19.1MiB/s
 29.3MiB/s
 21.3MiB/s
 23.3MiB/s
 30.7MiB/s
 22.4MiB/s
 13.7MiB/s
 26.3MiB/s
 36.5MiB/s
 40.8MiB/s
 46.1MiB/s
 28.1MiB/s
 27.8MiB/s
 32.1MiB/s
 34.3MiB/s
 22.6MiB/s
 28.1MiB/s
 28.4MiB/s
 29.5MiB/s
 26.2MiB/s
 34.9MiB/s
 24.9MiB/s
 26.1MiB/s
 28.7MiB/s
 31.9MiB/s
 29.2MiB/s
 20.5MiB/s
 24.4MiB/s
 35.9MiB/s
 13.9MiB/s
 20.9MiB/s
 16.3MiB/s
 52.4MiB/s
 27.1MiB/s
 22.8MiB/s
 18.9MiB/s
 41.2MiB/s
 19.4MiB/s
 39.8MiB/s
 33.6MiB/s
 41.3MiB/s
 31.7MiB/s
 35.4MiB/s
 42.1MiB/s
 30.3MiB/s
 30.2MiB/s
 32.2MiB/s
 46.6MiB/s
 47.7MiB/s
 25.6MiB/s
 28.3MiB/s
 27.6MiB/s
 21.2MiB/s
 18.1MiB/s
 28.9MiB/s
 18.5MiB/s
 20.1MiB/s
 31.7MiB/s
 22.5MiB/s
 33.1MiB/s
 33.3MiB/s
 13.5MiB/s
 19.6MiB/s
 17.3MiB/s
 25.8MiB/s
 24.1MiB/s
 34.4MiB/s
 24.7MiB/s
 43.6MiB/s
 45.4MiB/s
 16.8MiB/s
 27.4MiB/s
 31.4MiB/s
 35.4MiB/s
 39.2MiB/s
 37.1MiB/s
 53.9MiB/s
 48.5MiB/s
 35.8MiB/s
 38.1MiB/s
 38.6MiB/s
 41.2MiB/s
 29.3MiB/s
